%YAML 1.1
%TAG !u! tag:unity3d.com,2011:
--- !u!29 &1
SceneSettings:
  m_ObjectHideFlags: 0
  m_PVSData: 
  m_PVSObjectsArray: []
  m_PVSPortalsArray: []
  m_OcclusionBakeSettings:
    smallestOccluder: 5
    smallestHole: .25
    backfaceThreshold: 100
--- !u!104 &2
RenderSettings:
  m_ObjectHideFlags: 0
  serializedVersion: 6
  m_Fog: 0
  m_FogColor: {r: .5, g: .5, b: .5, a: 1}
  m_FogMode: 3
  m_FogDensity: .00999999978
  m_LinearFogStart: 0
  m_LinearFogEnd: 300
  m_AmbientSkyColor: {r: .211999997, g: .226999998, b: .259000003, a: 1}
  m_AmbientEquatorColor: {r: .114, g: .125, b: .133000001, a: 1}
  m_AmbientGroundColor: {r: .0469999984, g: .0430000015, b: .0350000001, a: 1}
  m_AmbientIntensity: 1
  m_AmbientMode: 0
  m_SkyboxMaterial: {fileID: 10304, guid: 0000000000000000f000000000000000, type: 0}
  m_HaloStrength: .5
  m_FlareStrength: 1
  m_FlareFadeSpeed: 3
  m_HaloTexture: {fileID: 0}
  m_SpotCookie: {fileID: 10001, guid: 0000000000000000e000000000000000, type: 0}
  m_DefaultReflectionMode: 0
  m_DefaultReflectionResolution: 128
  m_ReflectionBounces: 1
  m_ReflectionIntensity: 1
  m_CustomReflection: {fileID: 0}
  m_Sun: {fileID: 0}
--- !u!157 &3
LightmapSettings:
  m_ObjectHideFlags: 0
  serializedVersion: 5
  m_GIWorkflowMode: 0
  m_LightmapsMode: 1
  m_GISettings:
    serializedVersion: 2
    m_BounceScale: 1
    m_IndirectOutputScale: 1
    m_AlbedoBoost: 1
    m_TemporalCoherenceThreshold: 1
    m_EnvironmentLightingMode: 0
    m_EnableBakedLightmaps: 1
    m_EnableRealtimeLightmaps: 1
  m_LightmapEditorSettings:
    serializedVersion: 3
    m_Resolution: 2
    m_BakeResolution: 40
    m_TextureWidth: 1024
    m_TextureHeight: 1024
    m_AOMaxDistance: 1
    m_Padding: 2
    m_CompAOExponent: 0
    m_LightmapParameters: {fileID: 0}
    m_TextureCompression: 1
    m_FinalGather: 0
    m_FinalGatherRayCount: 1024
    m_ReflectionCompression: 2
  m_LightmapSnapshot: {fileID: 0}
  m_RuntimeCPUUsage: 25
--- !u!196 &4
NavMeshSettings:
  serializedVersion: 2
  m_ObjectHideFlags: 0
  m_BuildSettings:
    serializedVersion: 2
    agentRadius: .5
    agentHeight: 2
    agentSlope: 45
    agentClimb: .400000006
    ledgeDropHeight: 0
    maxJumpAcrossDistance: 0
    accuratePlacement: 0
    minRegionArea: 2
    cellSize: .166666672
    manualCellSize: 0
  m_NavMeshData: {fileID: 0}
--- !u!1001 &678241012
Prefab:
  m_ObjectHideFlags: 0
  serializedVersion: 2
  m_Modification:
    m_TransformParent: {fileID: 0}
    m_Modifications:
    - target: {fileID: 22439792, guid: 45616935e4fe10f48b62da1347801a16, type: 2}
      propertyPath: m_LocalPosition.x
      value: 0
      objectReference: {fileID: 0}
    - target: {fileID: 22439792, guid: 45616935e4fe10f48b62da1347801a16, type: 2}
      propertyPath: m_LocalPosition.y
      value: 0
      objectReference: {fileID: 0}
    - target: {fileID: 22439792, guid: 45616935e4fe10f48b62da1347801a16, type: 2}
      propertyPath: m_LocalPosition.z
      value: 0
      objectReference: {fileID: 0}
    - target: {fileID: 22439792, guid: 45616935e4fe10f48b62da1347801a16, type: 2}
      propertyPath: m_LocalRotation.x
      value: 0
      objectReference: {fileID: 0}
    - target: {fileID: 22439792, guid: 45616935e4fe10f48b62da1347801a16, type: 2}
      propertyPath: m_LocalRotation.y
      value: 0
      objectReference: {fileID: 0}
    - target: {fileID: 22439792, guid: 45616935e4fe10f48b62da1347801a16, type: 2}
      propertyPath: m_LocalRotation.z
      value: 0
      objectReference: {fileID: 0}
    - target: {fileID: 22439792, guid: 45616935e4fe10f48b62da1347801a16, type: 2}
      propertyPath: m_LocalRotation.w
      value: 1
      objectReference: {fileID: 0}
    - target: {fileID: 22439792, guid: 45616935e4fe10f48b62da1347801a16, type: 2}
      propertyPath: m_RootOrder
      value: 2
      objectReference: {fileID: 0}
    - target: {fileID: 22439792, guid: 45616935e4fe10f48b62da1347801a16, type: 2}
      propertyPath: m_AnchoredPosition.x
      value: 0
      objectReference: {fileID: 0}
    - target: {fileID: 22439792, guid: 45616935e4fe10f48b62da1347801a16, type: 2}
      propertyPath: m_AnchoredPosition.y
      value: 0
      objectReference: {fileID: 0}
    - target: {fileID: 22439792, guid: 45616935e4fe10f48b62da1347801a16, type: 2}
      propertyPath: m_SizeDelta.x
      value: 0
      objectReference: {fileID: 0}
    - target: {fileID: 22439792, guid: 45616935e4fe10f48b62da1347801a16, type: 2}
      propertyPath: m_SizeDelta.y
      value: 0
      objectReference: {fileID: 0}
    - target: {fileID: 22439792, guid: 45616935e4fe10f48b62da1347801a16, type: 2}
      propertyPath: m_AnchorMin.x
      value: 0
      objectReference: {fileID: 0}
    - target: {fileID: 22439792, guid: 45616935e4fe10f48b62da1347801a16, type: 2}
      propertyPath: m_AnchorMin.y
      value: 0
      objectReference: {fileID: 0}
    - target: {fileID: 22439792, guid: 45616935e4fe10f48b62da1347801a16, type: 2}
      propertyPath: m_AnchorMax.x
      value: 0
      objectReference: {fileID: 0}
    - target: {fileID: 22439792, guid: 45616935e4fe10f48b62da1347801a16, type: 2}
      propertyPath: m_AnchorMax.y
      value: 0
      objectReference: {fileID: 0}
    - target: {fileID: 22439792, guid: 45616935e4fe10f48b62da1347801a16, type: 2}
      propertyPath: m_Pivot.x
      value: 0
      objectReference: {fileID: 0}
    - target: {fileID: 22439792, guid: 45616935e4fe10f48b62da1347801a16, type: 2}
      propertyPath: m_Pivot.y
      value: 0
      objectReference: {fileID: 0}
    - target: {fileID: 11490476, guid: 45616935e4fe10f48b62da1347801a16, type: 2}
      propertyPath: m_Sprite
      value: 
      objectReference: {fileID: 10907, guid: 0000000000000000f000000000000000, type: 0}
    - target: {fileID: 11490476, guid: 45616935e4fe10f48b62da1347801a16, type: 2}
      propertyPath: m_Type
      value: 1
      objectReference: {fileID: 0}
    - target: {fileID: 11459976, guid: 45616935e4fe10f48b62da1347801a16, type: 2}
      propertyPath: m_Sprite
      value: 
      objectReference: {fileID: 10907, guid: 0000000000000000f000000000000000, type: 0}
    - target: {fileID: 11415358, guid: 45616935e4fe10f48b62da1347801a16, type: 2}
      propertyPath: m_Sprite
      value: 
      objectReference: {fileID: 10907, guid: 0000000000000000f000000000000000, type: 0}
    - target: {fileID: 11400818, guid: 45616935e4fe10f48b62da1347801a16, type: 2}
      propertyPath: m_Sprite
      value: 
      objectReference: {fileID: 10907, guid: 0000000000000000f000000000000000, type: 0}
    - target: {fileID: 22496010, guid: 45616935e4fe10f48b62da1347801a16, type: 2}
      propertyPath: m_AnchorMin.y
      value: 1
      objectReference: {fileID: 0}
    - target: {fileID: 22496010, guid: 45616935e4fe10f48b62da1347801a16, type: 2}
      propertyPath: m_AnchorMax.y
      value: 1
      objectReference: {fileID: 0}
    - target: {fileID: 22496010, guid: 45616935e4fe10f48b62da1347801a16, type: 2}
      propertyPath: m_AnchoredPosition.x
      value: 38.4926376
      objectReference: {fileID: 0}
    - target: {fileID: 22496010, guid: 45616935e4fe10f48b62da1347801a16, type: 2}
      propertyPath: m_AnchoredPosition.y
      value: -11.303071
      objectReference: {fileID: 0}
    - target: {fileID: 22496010, guid: 45616935e4fe10f48b62da1347801a16, type: 2}
      propertyPath: m_SizeDelta.x
      value: 76.9852753
      objectReference: {fileID: 0}
    - target: {fileID: 22496010, guid: 45616935e4fe10f48b62da1347801a16, type: 2}
      propertyPath: m_SizeDelta.y
      value: 22.606142
      objectReference: {fileID: 0}
    - target: {fileID: 22491550, guid: 45616935e4fe10f48b62da1347801a16, type: 2}
      propertyPath: m_AnchorMin.y
      value: 1
      objectReference: {fileID: 0}
    - target: {fileID: 22491550, guid: 45616935e4fe10f48b62da1347801a16, type: 2}
      propertyPath: m_AnchorMax.y
      value: 1
      objectReference: {fileID: 0}
    - target: {fileID: 22491550, guid: 45616935e4fe10f48b62da1347801a16, type: 2}
      propertyPath: m_AnchoredPosition.x
      value: 38.4926376
      objectReference: {fileID: 0}
    - target: {fileID: 22491550, guid: 45616935e4fe10f48b62da1347801a16, type: 2}
      propertyPath: m_AnchoredPosition.y
      value: -35.909214
      objectReference: {fileID: 0}
    - target: {fileID: 22491550, guid: 45616935e4fe10f48b62da1347801a16, type: 2}
      propertyPath: m_SizeDelta.x
      value: 76.9852753
      objectReference: {fileID: 0}
    - target: {fileID: 22491550, guid: 45616935e4fe10f48b62da1347801a16, type: 2}
      propertyPath: m_SizeDelta.y
      value: 22.606142
      objectReference: {fileID: 0}
    - target: {fileID: 22412784, guid: 45616935e4fe10f48b62da1347801a16, type: 2}
      propertyPath: m_AnchorMin.y
      value: 1
      objectReference: {fileID: 0}
    - target: {fileID: 22412784, guid: 45616935e4fe10f48b62da1347801a16, type: 2}
      propertyPath: m_AnchorMax.y
      value: 1
      objectReference: {fileID: 0}
    - target: {fileID: 22412784, guid: 45616935e4fe10f48b62da1347801a16, type: 2}
      propertyPath: m_AnchoredPosition.x
      value: 38.4926376
      objectReference: {fileID: 0}
    - target: {fileID: 22412784, guid: 45616935e4fe10f48b62da1347801a16, type: 2}
      propertyPath: m_AnchoredPosition.y
      value: -60.5153542
      objectReference: {fileID: 0}
    - target: {fileID: 22412784, guid: 45616935e4fe10f48b62da1347801a16, type: 2}
      propertyPath: m_SizeDelta.x
      value: 76.9852753
      objectReference: {fileID: 0}
    - target: {fileID: 22412784, guid: 45616935e4fe10f48b62da1347801a16, type: 2}
      propertyPath: m_SizeDelta.y
      value: 22.606142
      objectReference: {fileID: 0}
    - target: {fileID: 11467570, guid: 45616935e4fe10f48b62da1347801a16, type: 2}
      propertyPath: m_Text
      value: BEAR DEMO
      objectReference: {fileID: 0}
    m_RemovedComponents: []
  m_ParentPrefab: {fileID: 100100000, guid: 45616935e4fe10f48b62da1347801a16, type: 2}
  m_IsPrefabParent: 0
--- !u!1 &912124567
GameObject:
  m_ObjectHideFlags: 0
  m_PrefabParentObject: {fileID: 0}
  m_PrefabInternal: {fileID: 0}
  serializedVersion: 4
  m_Component:
  - 4: {fileID: 912124572}
  - 20: {fileID: 912124571}
  - 92: {fileID: 912124570}
  - 124: {fileID: 912124569}
  - 81: {fileID: 912124568}
  m_Layer: 0
  m_Name: Main Camera
  m_TagString: MainCamera
  m_Icon: {fileID: 0}
  m_NavMeshLayer: 0
  m_StaticEditorFlags: 0
  m_IsActive: 1
--- !u!81 &912124568
AudioListener:
  m_ObjectHideFlags: 0
  m_PrefabParentObject: {fileID: 0}
  m_PrefabInternal: {fileID: 0}
  m_GameObject: {fileID: 912124567}
  m_Enabled: 1
--- !u!124 &912124569
Behaviour:
  m_ObjectHideFlags: 0
  m_PrefabParentObject: {fileID: 0}
  m_PrefabInternal: {fileID: 0}
  m_GameObject: {fileID: 912124567}
  m_Enabled: 1
--- !u!92 &912124570
Behaviour:
  m_ObjectHideFlags: 0
  m_PrefabParentObject: {fileID: 0}
  m_PrefabInternal: {fileID: 0}
  m_GameObject: {fileID: 912124567}
  m_Enabled: 1
--- !u!20 &912124571
Camera:
  m_ObjectHideFlags: 0
  m_PrefabParentObject: {fileID: 0}
  m_PrefabInternal: {fileID: 0}
  m_GameObject: {fileID: 912124567}
  m_Enabled: 1
  serializedVersion: 2
  m_ClearFlags: 1
  m_BackGroundColor: {r: .192156866, g: .301960796, b: .474509805, a: .0196078438}
  m_NormalizedViewPortRect:
    serializedVersion: 2
    x: 0
    y: 0
    width: 1
    height: 1
  near clip plane: .300000012
  far clip plane: 1000
  field of view: 60
  orthographic: 0
  orthographic size: 5
  m_Depth: -1
  m_CullingMask:
    serializedVersion: 2
    m_Bits: 4294967295
  m_RenderingPath: -1
  m_TargetTexture: {fileID: 0}
  m_TargetDisplay: 0
  m_TargetEye: 3
  m_HDR: 0
  m_OcclusionCulling: 1
  m_StereoConvergence: 10
  m_StereoSeparation: .0219999999
  m_StereoMirrorMode: 0
--- !u!4 &912124572
Transform:
  m_ObjectHideFlags: 0
  m_PrefabParentObject: {fileID: 0}
  m_PrefabInternal: {fileID: 0}
  m_GameObject: {fileID: 912124567}
  m_LocalRotation: {x: 0, y: 0, z: 0, w: 1}
  m_LocalPosition: {x: 0, y: 1, z: -10}
  m_LocalScale: {x: 1, y: 1, z: 1}
  m_Children: []
  m_Father: {fileID: 0}
  m_RootOrder: 0
--- !u!1 &1061980273
GameObject:
  m_ObjectHideFlags: 0
  m_PrefabParentObject: {fileID: 0}
  m_PrefabInternal: {fileID: 0}
  serializedVersion: 4
  m_Component:
  - 4: {fileID: 1061980275}
  - 108: {fileID: 1061980274}
  m_Layer: 0
  m_Name: Directional Light
  m_TagString: Untagged
  m_Icon: {fileID: 0}
  m_NavMeshLayer: 0
  m_StaticEditorFlags: 0
  m_IsActive: 1
--- !u!108 &1061980274
Light:
  m_ObjectHideFlags: 0
  m_PrefabParentObject: {fileID: 0}
  m_PrefabInternal: {fileID: 0}
  m_GameObject: {fileID: 1061980273}
  m_Enabled: 1
  serializedVersion: 6
  m_Type: 1
  m_Color: {r: 1, g: .956862748, b: .839215696, a: 1}
  m_Intensity: 1
  m_Range: 10
  m_SpotAngle: 30
  m_CookieSize: 10
  m_Shadows:
    m_Type: 2
    m_Resolution: -1
    m_Strength: 1
    m_Bias: .0500000007
    m_NormalBias: .400000006
  m_Cookie: {fileID: 0}
  m_DrawHalo: 0
  m_Flare: {fileID: 0}
  m_RenderMode: 0
  m_CullingMask:
    serializedVersion: 2
    m_Bits: 4294967295
  m_Lightmapping: 4
  m_BounceIntensity: 1
  m_ShadowRadius: 0
  m_ShadowAngle: 0
  m_AreaSize: {x: 1, y: 1}
--- !u!4 &1061980275
Transform:
  m_ObjectHideFlags: 0
  m_PrefabParentObject: {fileID: 0}
  m_PrefabInternal: {fileID: 0}
  m_GameObject: {fileID: 1061980273}
  m_LocalRotation: {x: .408217937, y: -.234569728, z: .109381676, w: .875426054}
  m_LocalPosition: {x: 0, y: 3, z: 0}
  m_LocalScale: {x: 1, y: 1, z: 1}
  m_Children: []
  m_Father: {fileID: 0}
  m_RootOrder: 1
--- !u!1001 &2140095178
Prefab:
  m_ObjectHideFlags: 0
  serializedVersion: 2
  m_Modification:
    m_TransformParent: {fileID: 0}
    m_Modifications:
    - target: {fileID: 404792, guid: ecc0be9c3d4f1ed42bda45b243417e0a, type: 2}
      propertyPath: m_LocalPosition.x
      value: 0
      objectReference: {fileID: 0}
    - target: {fileID: 404792, guid: ecc0be9c3d4f1ed42bda45b243417e0a, type: 2}
      propertyPath: m_LocalPosition.y
      value: 0
      objectReference: {fileID: 0}
    - target: {fileID: 404792, guid: ecc0be9c3d4f1ed42bda45b243417e0a, type: 2}
      propertyPath: m_LocalPosition.z
      value: 0
      objectReference: {fileID: 0}
    - target: {fileID: 404792, guid: ecc0be9c3d4f1ed42bda45b243417e0a, type: 2}
      propertyPath: m_LocalRotation.x
      value: 0
      objectReference: {fileID: 0}
    - target: {fileID: 404792, guid: ecc0be9c3d4f1ed42bda45b243417e0a, type: 2}
      propertyPath: m_LocalRotation.y
      value: 0
      objectReference: {fileID: 0}
    - target: {fileID: 404792, guid: ecc0be9c3d4f1ed42bda45b243417e0a, type: 2}
      propertyPath: m_LocalRotation.z
      value: 0
      objectReference: {fileID: 0}
    - target: {fileID: 404792, guid: ecc0be9c3d4f1ed42bda45b243417e0a, type: 2}
      propertyPath: m_LocalRotation.w
      value: 1
      objectReference: {fileID: 0}
    - target: {fileID: 404792, guid: ecc0be9c3d4f1ed42bda45b243417e0a, type: 2}
      propertyPath: m_RootOrder
      value: 3
      objectReference: {fileID: 0}
    m_RemovedComponents: []
  m_ParentPrefab: {fileID: 100100000, guid: ecc0be9c3d4f1ed42bda45b243417e0a, type: 2}
  m_IsPrefabParent: 0
